…
Generate some random data with the function `podlove_create_example()`
with ~10.000 downloads in total. The `seed` parameter fixes the
randomization to give you the same data as in this example. The `clean`
parameter states that you want a dataframe of cleaned data, not raw
input tables.

    downloads <- podlove_create_example(total_dls = 10000, seed = 12, clean = TRUE)

Here it is:

    print(downloads)
    #> # A tibble: 6,739 x 20
    #>    ep_number title ep_num_title duration post_date  post_datehour      
    #>    <chr>     <fct> <chr>        <chr>    <date>     <dttm>             
    #>  1 01        Asht~ 01: Ashton-~ 00:32:2~ 2019-01-01 2019-01-01 00:00:00
    #>  2 01        Asht~ 01: Ashton-~ 00:32:2~ 2019-01-01 2019-01-01 00:00:00
    #>  3 01        Asht~ 01: Ashton-~ 00:32:2~ 2019-01-01 2019-01-01 00:00:00
    #>  4 01        Asht~ 01: Ashton-~ 00:32:2~ 2019-01-01 2019-01-01 00:00:00
    #>  5 01        Asht~ 01: Ashton-~ 00:32:2~ 2019-01-01 2019-01-01 00:00:00
    #>  6 01        Asht~ 01: Ashton-~ 00:32:2~ 2019-01-01 2019-01-01 00:00:00
    #>  7 01        Asht~ 01: Ashton-~ 00:32:2~ 2019-01-01 2019-01-01 00:00:00
    #>  8 01        Asht~ 01: Ashton-~ 00:32:2~ 2019-01-01 2019-01-01 00:00:00
    #>  9 01        Asht~ 01: Ashton-~ 00:32:2~ 2019-01-01 2019-01-01 00:00:00
    #> 10 01        Asht~ 01: Ashton-~ 00:32:2~ 2019-01-01 2019-01-01 00:00:00
    #> # ... with 6,729 more rows, and 14 more variables: ep_age_hours <dbl>,
    #> #   ep_age_days <dbl>, hours_since_release <dbl>, days_since_release <dbl>,
    #> #   source <chr>, context <chr>, dldate <date>, dldatehour <dttm>,
    #> #   weekday <ord>, hour <int>, client_name <chr>, client_type <chr>,
    #> #   os_name <chr>, dl_attempts <int>
…
